{
  "$schema": "http://json-schema.org/draft-04/schema#",
  "id": "https://portal.webgap.eu:8080/schemas/order.json",
  "title": "WebGAP service orders schema",
  "type": "object",
  "properties": {
    "id": {
      "description": "The unique identifier for the order",
      "type": "string",
      "pattern": "[0-9a-f]{8}(-[0-9a-f]{4}){3}-[0-9a-f]{12}",
      "additionalProperties": false
    },
    "serviceId": {
      "description": "The unique identifier of the service to run within the order",
      "type": "string",
      "pattern": "[0-9a-f]{8}(-[0-9a-f]{4}){3}-[0-9a-f]{12}",
      "additionalProperties": false
    },
    "status": {
      "description": "The status of the order",
      "type": {
        "enum": [
          "OK",
          "PENDING",
          "PROCESSING",
          "ERROR"
        ]
      },
      "additionalProperties": false
    },
    "startDate": {
      "description": "The order start date",
      "type": "string",
      "minLength": 1,
      "additionalProperties": false
    },
    "endDate": {
      "description": "The order end date",
      "type": "string",
      "minLength": 1,
      "additionalProperties": false
    },
    "required": [
      "id",
      "serviceId",
      "status",
      "startDate"
    ]
  }
}