{
  "$schema": "http://json-schema.org/draft-04/schema#",
  "id": "https://portal.webgap.eu:8080/schemas/response.json",
  "title": "WebGAP response message schema.",
  "type": "object",
  "properties": {
    "id": {
      "description": "The unique identifier for the request.",
      "type": "string",
      "pattern": "[0-9a-f]{8}(-[0-9a-f]{4}){3}-[0-9a-f]{12}",
      "additionalProperties": false
    },
    "token": {
      "description": "The token for validity. JWT is used and messages are encoded using HS512 algorithm.",
      "type": "object",
      "$ref": "https://portal.webgap.eu:8080/schemas/token.json",
      "additionalProperties": false
    },
    "status": {
      "description": "The status of the request.",
      "type": {
        "enum": [
          "OK",
          "INVALID_REQUEST",
          "REQUEST_DENIED",
          "ERROR"
        ]
      },
      "additionalProperties": false
    },
    "error": {
      "description": "The error object. If an error occurs this should be filled.",
      "type": "object",
      "properties": {
        "code": {
          "description": "The error code. Usually http compliant.",
          "type": "string",
          "additionalProperties": false
        },
        "details": {
          "description": "The error description.",
          "type": "string",
          "additionalProperties": false
        },
        "required": [
          "code",
          "details"
        ]
      }
    },
    "result": {
      "description": "The result data encrypted using HS512 algorithm.",
      "type": "object",
      "properties": {
        "data": {
          "description": "The return data encrypted using HS512 algorithm.",
          "type": "string",
          "additionalProperties": false
        },
        "required": ["data"]
      }
    }
  },
  "required": [
    "id",
    "token",
    "status"
  ]
}